{
  "DiscordBot": {
    "tittle": "MineCraft-Discord-Bot",
    "content": "When having local minecraft Servers some individuals don't like leaving their computers on all of the time. This causes an issue for other players who would like to play on the server, but don't know whether the server is up all the time without logging into the game. A solution to the problem was creating a discord-bot that pings the server for current status/number of players active on the server",
    "action": "Repository",
    "link": "https://gitlab.com/DevilAngel4life/minecraft-bot"
  },
  "Superpong": {
    "tittle": "Super Pong",
    "content": "Super Pong is a game created as a small project for a course in University. The project main task was to test each individuals ability to code and knowledge of technologies. This being in unity engine. C# and git. ",
    "action": "Repository",
    "link": "https://github.com/DevilAngel4life/SuperPong"
  },
  "Compiler": {
    "tittle": "VGo Compiler Design",
    "content": "Vgo compiler project was a long semester project for compilers class offered at the University of Idaho. The task is to create a compiler of our own. This compiler is using a superset of \"Go language\". The compiler is created using C code. The project tested each individuals knowledge of basics in coding skills trees,  memory allocation,, for-loops, if's, case, structs, link list, etc.",
    "action": "Repository",
    "link": "https://gitlab.com/DevilAngel4life/minecraft-bot"
  },
  "ChaseEnd": {
    "tittle": "Chasing the End",
    "content": "A group project for a software engineering course using waterfall method, with a restriction of not branching in the git repository. The project was a semester long project. We had to create the planning process for the project data flow diagrams, task planning which included how many hours each part of development of the project would take and find task that blocked others from working on their parts. The project teaches the team to collaborate together and plan to complete their objectives. ",
    "action": "Repository",
    "link": "https://github.com/CS383-Dream-Team/Chasing-the-End"
  },
  "BioDiesel": {
    "tittle": "Biodiesel",
    "content": "The project is to teach user's about the process of biodiesel. The task was to create a game for users to learn the process and learn what it takes to create their biodiesel fuel. We worked with different libraries to make is more realistic. This included google maps api, and threejs.",
    "action": "Website",
    "link": "https://biodieseleducation.org/simulator/"
  },
  "FenWhere": {
    "tittle": "FenWhere Schedule Manager",
    "content": "Internal Manager created to schedule all employees work times and manage all employee info. I had the chance to work with a team of nine or more coders while using agile methodology to develop the application.",
    "action": "FenWhere site",
    "link": "https://fenwaygroup.com/"
  }
}
